…
- `==`: Equal to
- `!=`: Not equal to
- `>`, `>=`: Greater than, greater than or equal to
- `<`, `<=`: Less than, less than or equal to

Let's try it out. For this to work you have to have already loaded the dplyr package. Let's take a look at [LEU1](http://www.yeastgenome.org/locus/Leu1/overview), a gene involved in leucine synthesis.


```r
# First, make sure you've loaded the dplyr package
library(dplyr)

# Look at a single gene involved in leucine synthesis pathway
filter(ydat, symbol == "LEU1")
## # A tibble: 36 x 7
##   symbol systematic_name nutrient  rate expression bp        mf           
##   <chr>  <chr>           <chr>    <dbl>      <dbl> <chr>     <chr>        
## 1 LEU1   YGL009C         Glucose   0.05      -1.12 leucine ~ 3-isopropylm~
## 2 LEU1   YGL009C         Glucose   0.1       -0.77 leucine ~ 3-isopropylm~
## 3 LEU1   YGL009C         Glucose   0.15      -0.67 leucine ~ 3-isopropylm~
## 4 LEU1   YGL009C         Glucose   0.2       -0.59 leucine ~ 3-isopropylm~
## 5 LEU1   YGL009C         Glucose   0.25      -0.2  leucine ~ 3-isopropylm~
## 6 LEU1   YGL009C         Glucose   0.3        0.03 leucine ~ 3-isopropylm~
## # ... with 30 more rows

# Optionally, bring that result up in a View window
# View(filter(ydat, symbol == "LEU1"))

# Look at multiple genes
filter(ydat, symbol=="LEU1" | symbol=="ADH2")
## # A tibble: 72 x 7
##   symbol systematic_name nutrient  rate expression bp        mf           
##   <chr>  <chr>           <chr>    <dbl>      <dbl> <chr>     <chr>        
## 1 LEU1   YGL009C         Glucose   0.05      -1.12 leucine ~ 3-isopropylm~
## 2 ADH2   YMR303C         Glucose   0.05       6.28 fermenta~ alcohol dehy~
## 3 LEU1   YGL009C         Glucose   0.1       -0.77 leucine ~ 3-isopropylm~
## 4 ADH2   YMR303C         Glucose   0.1        5.81 fermenta~ alcohol dehy~
## 5 LEU1   YGL009C         Glucose   0.15      -0.67 leucine ~ 3-isopropylm~
## 6 ADH2   YMR303C         Glucose   0.15       5.64 fermenta~ alcohol dehy~
## # ... with 66 more rows
…
The real power comes in where `group_by()` and `summarize()` are used together. First, write the `group_by()` statement. Then wrap the result of that with a call to `summarize()`.


```r
# Get the mean expression for each gene
# group_by(ydat, symbol)
summarize(group_by(ydat, symbol), meanexp=mean(expression))
## # A tibble: 4,211 x 2
##   symbol meanexp
##   <chr>    <dbl>
## 1 AAC1    0.529 
## 2 AAC3   -0.216 
## 3 AAD10   0.438 
## 4 AAD14  -0.0717
## 5 AAD16   0.242 
## 6 AAD4   -0.792 
## # ... with 4,205 more rows
…
Which 10 biological process annotations have the most genes associated with them? What about molecular functions? _Hint:_ 4 pipes: `group_by`, `summarize` with `n_distinct`, `arrange`, `head`.


```r
ydat %>% 
  group_by(bp) %>% 
  summarize(n=n_distinct(symbol)) %>% 
  arrange(desc(n)) %>% 
  head(10)
## # A tibble: 10 x 2
##   bp                                                               n
##   <chr>                                                        <int>
## 1 biological process unknown                                     269
## 2 protein biosynthesis                                           182
## 3 protein amino acid phosphorylation*                             78
## 4 protein biosynthesis*                                           73
## 5 cell wall organization and biogenesis*                          64
## 6 regulation of transcription from RNA polymerase II promoter*    49
## # ... with 4 more rows

ydat %>% 
  group_by(mf) %>% 
  summarize(n=n_distinct(symbol)) %>% 
  arrange(desc(n)) %>% 
  head(10)
## # A tibble: 10 x 2
##   mf                                     n
##   <chr>                              <int>
## 1 molecular function unknown           886
## 2 structural constituent of ribosome   185
## 3 protein binding                      107
## 4 RNA binding                           63
## 5 protein binding*                      53
## 6 DNA binding*                          44
## # ... with 4 more rows
```

How many distinct genes are there where we know what process the gene is involved in but we don't know what it does? _Hint:_ 3 pipes; `filter` where `bp!="biological process unknown" & mf=="molecular function unknown"`, and after `select`ing columns of interest, pipe the output to `distinct()`. The answer should be **737**, and here are a few:


```r
ydat %>% 
  filter(bp!="biological process unknown" & mf=="molecular function unknown") %>% 
  select(symbol, bp, mf) %>% 
  distinct()
## # A tibble: 737 x 3
##   symbol bp                                            mf                 
##   <chr>  <chr>                                         <chr>              
## 1 SFB2   ER to Golgi transport                         molecular function~
## 2 EDC3   deadenylylation-independent decapping         molecular function~
## 3 PER1   response to unfolded protein*                 molecular function~
## 4 PEX25  peroxisome organization and biogenesis*       molecular function~
## 5 BNI5   cytokinesis*                                  molecular function~
## 6 CSN12  adaptation to pheromone during conjugation w~ molecular function~
## # ... with 731 more rows
```

When the growth rate is restricted to 0.05 by limiting Glucose, which biological processes are the most upregulated? Show a sorted list with the most upregulated BPs on top, displaying the biological process and the average expression of all genes in that process rounded to two digits. _Hint:_ 5 pipes: `filter`, `group_by`, `summarize`, `mutate`, `arrange`.


```r
ydat %>% 
  filter(nutrient=="Glucose" & rate==.05) %>% 
  group_by(bp) %>% 
  summarize(meanexp=mean(expression)) %>% 
  mutate(meanexp=round(meanexp, 2)) %>% 
  arrange(desc(meanexp))
## # A tibble: 881 x 2
##   bp                                            meanexp
##   <chr>                                           <dbl>
## 1 fermentation*                                    6.28
## 2 glyoxylate cycle                                 5.29
## 3 oxygen and reactive oxygen species metabolism    5.04
## 4 fumarate transport*                              5.03
## 5 acetyl-CoA biosynthesis*                         4.32
## 6 gluconeogenesis                                  3.64
## # ... with 875 more rows
```

Group the data by limiting nutrient (primarily) then by biological process. Get the average expression for all genes annotated with each process, separately for each limiting nutrient, where the growth rate is restricted to 0.05. Arrange the result to show the most upregulated processes on top. The initial result will look like the result below. Pipe this output to a `View()` statement. What's going on? Why didn't the `arrange()` work? _Hint:_ 5 pipes: `filter`, `group_by`, `summarize`, `arrange`, `View`.


```r
ydat %>% 
  filter(rate==0.05) %>% 
  group_by(nutrient, bp) %>% 
  summarize(meanexp=mean(expression)) %>% 
  arrange(desc(meanexp))
## # A tibble: 5,257 x 3
## # Groups:   nutrient [6]
##   nutrient  bp                              meanexp
##   <chr>     <chr>                             <dbl>
## 1 Ammonia   allantoate transport               6.64
## 2 Ammonia   amino acid transport*              6.64
## 3 Phosphate glycerophosphodiester transport    6.64
## 4 Glucose   fermentation*                      6.28
## 5 Ammonia   allantoin transport                5.56
## 6 Glucose   glyoxylate cycle                   5.28
## # ... with 5,251 more rows
```

Let's try to further process that result to get only the top three most upregulated biolgocal processes for each limiting nutrient. Google search "dplyr first result within group." You'll need a `filter(row_number()......)` in there somewhere. _Hint:_ 5 pipes: `filter`, `group_by`, `summarize`, `arrange`, `filter(row_number()...`. _Note:_ dplyr's pipe syntax used to be `%.%` before it changed to `%>%`. So when looking around, you might still see some people use the old syntax. Now if you try to use the old syntax, you'll get a deprecation warning.


```r
ydat %>% 
  filter(rate==0.05) %>% 
  group_by(nutrient, bp) %>% 
  summarize(meanexp=mean(expression)) %>% 
  arrange(desc(meanexp)) %>% 
  filter(row_number()<=3)
## # A tibble: 18 x 3
## # Groups:   nutrient [6]
##   nutrient  bp                              meanexp
##   <chr>     <chr>                             <dbl>
## 1 Ammonia   allantoate transport               6.64
## 2 Ammonia   amino acid transport*              6.64
## 3 Phosphate glycerophosphodiester transport    6.64
## 4 Glucose   fermentation*                      6.28
## 5 Ammonia   allantoin transport                5.56
## 6 Glucose   glyoxylate cycle                   5.28
## # ... with 12 more rows
```
